<svg width="295" height="238" viewBox="0 0 295 238" fill="none" xmlns="http://www.w3.org/2000/svg">
<g clip-path="url(#clip0)">
<path opacity="0.1" d="M151.75 238.003C225.377 238.003 285.064 184.724 285.064 119.001C285.064 53.2788 225.377 0 151.75 0C78.123 0 18.4365 53.2788 18.4365 119.001C18.4365 184.724 78.123 238.003 151.75 238.003Z" fill="#6C63FF"/>
<path opacity="0.1" d="M49.1552 187.495C76.3029 187.495 98.3105 184.083 98.3105 179.874C98.3105 175.665 76.3029 172.254 49.1552 172.254C22.0075 172.254 0 175.665 0 179.874C0 184.083 22.0075 187.495 49.1552 187.495Z" fill="#6C63FF"/>
<path opacity="0.1" d="M72.7812 223.799C83.3404 223.799 91.9003 222.031 91.9003 219.849C91.9003 217.667 83.3404 215.899 72.7812 215.899C62.222 215.899 53.6621 217.667 53.6621 219.849C53.6621 222.031 62.222 223.799 72.7812 223.799Z" fill="#6C63FF"/>
<path opacity="0.1" d="M203.423 208.601C213.982 208.601 222.542 206.832 222.542 204.651C222.542 202.469 213.982 200.7 203.423 200.7C192.864 200.7 184.304 202.469 184.304 204.651C184.304 206.832 192.864 208.601 203.423 208.601Z" fill="#6C63FF"/>
<path opacity="0.1" d="M138.547 205.286C155.718 205.286 169.637 202.927 169.637 200.018C169.637 197.108 155.718 194.75 138.547 194.75C121.376 194.75 107.456 197.108 107.456 200.018C107.456 202.927 121.376 205.286 138.547 205.286Z" fill="#6C63FF"/>
<path opacity="0.1" d="M230.155 184.099C265.97 184.099 295.003 179.551 295.003 173.94C295.003 168.33 265.97 163.781 230.155 163.781C194.341 163.781 165.308 168.33 165.308 173.94C165.308 179.551 194.341 184.099 230.155 184.099Z" fill="#6C63FF"/>
<path d="M13.4405 156.209C11.9838 159.044 11.3034 162.213 11.4686 165.396C11.6337 168.579 12.6385 171.661 14.3807 174.329C14.9523 175.187 15.4781 175.804 15.8982 175.967C17.913 176.759 21.9483 178.705 21.9483 178.705L31.665 174.886C31.665 174.886 33.2426 166.54 34.7344 159.374C35.7518 154.486 36.7349 150.15 37.1379 149.389C38.1438 147.517 37.1379 127.134 37.1379 127.134C37.1379 127.134 27.4211 126.482 24.749 133.974L23.5802 136.261L13.4405 156.209Z" fill="#A8A8A8"/>
<path opacity="0.1" d="M26.3408 158.462C32.248 165.233 34.7401 159.376 34.7401 159.376C35.7575 154.489 36.7406 150.152 37.1436 149.392C38.1495 147.52 37.1436 127.136 37.1436 127.136C37.1436 127.136 27.4268 126.485 24.7547 133.977L23.5859 136.263C22.8371 142.257 22.0969 153.588 26.3408 158.462Z" fill="white"/>
<path d="M27.6387 177.336L61.933 173.374L68.0517 133.105L63.4248 122.646C61.4701 118.192 58.7632 114.107 55.4228 110.572C53.0937 108.116 50.2787 105.755 47.3179 104.569C46.9133 104.406 46.5002 104.265 46.0805 104.146C45.5979 104 45.0876 103.969 44.591 104.057C44.0944 104.145 43.6255 104.349 43.2226 104.652C38.993 107.651 37.4812 120.399 36.9925 126.536C36.7914 129.058 36.4508 131.567 35.9722 134.051L27.6387 177.336Z" fill="#A8A8A8"/>
<path opacity="0.1" d="M50.4698 132.67L43.3251 150.25C47.0689 147.511 52.616 132.599 52.616 132.599L57.5858 149.601L53.6248 131.681C54.2047 127.79 54.3733 123.849 54.1278 119.922C53.8135 115.423 49.5924 108.202 47.3004 104.567C46.8958 104.403 46.4827 104.262 46.0629 104.143C45.5804 103.997 45.07 103.966 44.5734 104.054C44.0768 104.142 43.608 104.346 43.2051 104.649C45.0055 108.265 49.5067 117.306 50.8784 119.993C52.6189 123.378 50.4698 132.67 50.4698 132.67Z" fill="white"/>
<path d="M56.3027 178.705H74.9103C75.6757 178.705 76.4331 178.55 77.1366 178.248C77.84 177.946 78.4748 177.504 79.0022 176.95C79.5296 176.395 79.9387 175.739 80.2046 175.021C80.4705 174.303 80.5876 173.538 80.5489 172.774C80.1373 164.793 79.0942 150.564 76.6136 141.531C75.2732 136.658 73.7157 134.099 72.2868 132.839C71.6167 132.192 70.7516 131.785 69.8261 131.681C69.1242 131.621 68.4216 131.791 67.8256 132.167C64.3705 135.48 60.3352 152.913 60.3352 152.913L56.3027 178.705Z" fill="#A8A8A8"/>
<path opacity="0.1" d="M73.4817 163.244C74.2476 165.368 74.5505 167.818 73.4817 170.204L69.3349 172.254C69.3349 172.254 58.1892 167.529 59.5439 157.845C59.5439 157.845 59.9097 155.844 63.7478 155.998C65.9063 156.102 67.9849 156.847 69.7185 158.138C71.4521 159.428 72.7621 161.206 73.4817 163.244Z" fill="white"/>
<path opacity="0.1" d="M69.0515 137.787C68.9229 134.391 70.7662 133.213 72.2895 132.839C71.6194 132.192 70.7543 131.785 69.8288 131.681C68.7686 132.569 68.0171 133.77 67.6826 135.111L63.7959 154.06C63.7959 154.06 69.2687 143.478 69.0515 137.787Z" fill="white"/>
<path d="M51.4074 152.771L60.6211 165.376L62.2187 175.781L56.2972 178.705L47.7607 180.592C46.9386 180.774 46.0933 180.829 45.2544 180.755L21.96 178.705L25.1293 171.356L36.0749 155.986L51.4074 152.771Z" fill="#A8A8A8"/>
<path opacity="0.1" d="M47.841 148.443C47.841 148.443 54.1283 148.875 51.7677 159.679C49.4071 170.484 25.1182 171.35 25.1182 171.35C25.1182 171.35 30.2795 162.203 38.2186 155.649C39.1103 154.914 39.9705 154.148 40.7907 153.331C42.6169 151.504 46.1092 148.294 47.841 148.443Z" fill="white"/>
<path opacity="0.1" d="M53.4961 156.59C53.4961 156.59 62.0154 164.344 61.2123 176.278L53.4961 156.59Z" fill="black"/>
<path opacity="0.1" d="M67.8283 132.167C67.8283 132.167 58.8889 144.058 57.8857 162.355L67.8283 132.167Z" fill="black"/>
<path opacity="0.1" d="M37.1458 127.128C37.1458 127.128 41.4726 146.78 30.6699 161.592L37.1458 127.128Z" fill="black"/>
<path d="M115.952 199.909H162.575C163.026 199.906 163.468 199.787 163.86 199.563C164.251 199.339 164.577 199.018 164.807 198.63C165.037 198.243 165.163 197.802 165.173 197.351C165.182 196.901 165.075 196.455 164.862 196.058L141.562 152.759C141.338 152.344 141.007 151.997 140.602 151.755C140.198 151.514 139.735 151.386 139.264 151.386C138.793 151.386 138.33 151.514 137.925 151.755C137.521 151.997 137.189 152.344 136.966 152.759L113.654 196.058C113.441 196.456 113.333 196.903 113.343 197.354C113.353 197.806 113.48 198.247 113.712 198.635C113.943 199.023 114.271 199.344 114.664 199.567C115.057 199.791 115.501 199.908 115.952 199.909ZM142.23 191.997H136.297V186.065H142.23V191.997ZM142.23 182.109H136.297V170.244H142.23V182.109Z" fill="#464353"/>
<path opacity="0.1" d="M115.952 199.909H162.575C163.026 199.906 163.468 199.787 163.86 199.563C164.251 199.339 164.577 199.018 164.807 198.63C165.037 198.243 165.163 197.802 165.173 197.351C165.182 196.901 165.075 196.455 164.862 196.058L141.562 152.759C141.338 152.344 141.007 151.997 140.602 151.755C140.198 151.514 139.735 151.386 139.264 151.386C138.793 151.386 138.33 151.514 137.925 151.755C137.521 151.997 137.189 152.344 136.966 152.759L113.654 196.058C113.441 196.456 113.333 196.903 113.343 197.354C113.353 197.806 113.48 198.247 113.712 198.635C113.943 199.023 114.271 199.344 114.664 199.567C115.057 199.791 115.501 199.908 115.952 199.909ZM142.23 191.997H136.297V186.065H142.23V191.997ZM142.23 182.109H136.297V170.244H142.23V182.109Z" fill="black"/>
<path d="M115.952 201.338H162.575C163.026 201.336 163.468 201.217 163.86 200.993C164.251 200.769 164.577 200.447 164.807 200.06C165.037 199.672 165.163 199.232 165.173 198.781C165.182 198.33 165.075 197.885 164.862 197.488L141.562 154.189C141.338 153.773 141.007 153.427 140.602 153.185C140.198 152.943 139.735 152.815 139.264 152.815C138.793 152.815 138.33 152.943 137.925 153.185C137.521 153.427 137.189 153.773 136.966 154.189L113.654 197.488C113.441 197.886 113.333 198.332 113.343 198.784C113.353 199.235 113.48 199.677 113.712 200.065C113.943 200.452 114.271 200.774 114.664 200.997C115.057 201.22 115.501 201.338 115.952 201.338ZM142.23 193.426H136.297V187.495H142.23V193.426ZM142.23 183.539H136.297V171.673H142.23V183.539Z" fill="#464353"/>
<path d="M66.8199 67.6643C66.7885 68.2617 67.0857 68.8077 67.2601 69.3794C67.5485 70.4835 67.5197 71.6466 67.1772 72.7351C66.8571 73.8785 66.3198 75.0876 66.7285 76.2053C66.8228 76.4682 66.9657 76.7083 67.0514 76.9713C67.4058 78.0575 66.7485 79.2009 66.0283 80.0898L68.8547 82.0707C69.2674 82.4128 69.7583 82.6475 70.2837 82.7539C70.8124 82.8168 71.4268 82.5338 71.5354 82.0136C71.5726 81.8363 71.5354 81.6505 71.5697 81.4705C71.6045 81.2376 71.6945 81.0164 71.8322 80.8255C71.9699 80.6345 72.1514 80.4793 72.3613 80.3728C72.7859 80.1646 73.2593 80.0766 73.7303 80.1184C75.465 80.2128 76.9396 81.3533 78.5172 82.085C79.5572 82.5355 80.635 82.8932 81.738 83.1541C82.3639 83.317 83.0583 83.4656 83.6242 83.1541C84.19 82.8425 84.4501 82.1193 84.4072 81.4647C84.3194 80.8137 84.1162 80.1836 83.8071 79.6039C83.4952 79.0249 83.3073 78.3873 83.2555 77.7316C83.2555 76.7712 83.7814 75.8965 83.9586 74.9533C84.2072 73.6127 83.7014 72.2492 83.0841 71.0315C82.4668 69.8138 81.718 68.6419 81.4179 67.3156C81.3584 66.9136 81.2539 66.5195 81.1064 66.1408C80.9634 65.8532 80.7698 65.5937 80.5348 65.3747C79.4746 64.3257 77.9628 63.8283 76.4824 63.7197C75.002 63.6111 73.5074 63.854 72.0384 64.1084C71.478 64.1885 70.926 64.3195 70.3894 64.5C69.6226 64.8048 68.8945 65.1992 68.2203 65.6749C67.5516 66.1379 66.8628 66.8154 66.8199 67.6643Z" fill="#464353"/>
<g opacity="0.1">
<path opacity="0.1" d="M83.2463 77.1451C83.2463 77.2308 83.2463 77.3165 83.2634 77.3994C83.352 76.5621 83.7921 75.7761 83.9493 74.9388C84.01 74.6033 84.0283 74.2615 84.0036 73.9214C84.0036 74.07 83.975 74.2072 83.9493 74.3672C83.7693 75.3103 83.2348 76.1848 83.2463 77.1451Z" fill="black"/>
<path opacity="0.1" d="M67.4513 70.5221C67.4849 69.9438 67.4202 69.364 67.2598 68.8074C67.0907 68.3737 66.9522 67.9287 66.8454 67.4756C66.8454 67.5356 66.8225 67.5928 66.8197 67.6528C66.7883 68.2501 67.0855 68.7959 67.2598 69.3675C67.3702 69.7432 67.4345 70.1309 67.4513 70.5221Z" fill="black"/>
<path opacity="0.1" d="M84.3813 81.3071C84.3613 81.5625 84.2816 81.8096 84.1486 82.0285C84.0155 82.2474 83.8329 82.432 83.6154 82.5674C83.0438 82.8789 82.3551 82.7303 81.7292 82.5674C80.6258 82.3069 79.5479 81.9483 78.5084 81.4957C76.9309 80.7669 75.4562 79.6267 73.7215 79.5324C73.2505 79.4906 72.7771 79.5785 72.3526 79.7867C72.1426 79.8932 71.9612 80.0483 71.8234 80.2392C71.6857 80.4302 71.5957 80.6513 71.5609 80.8841C71.5409 81.0642 71.5609 81.2499 71.5266 81.4271C71.4152 81.9472 70.8036 82.2302 70.2749 82.1673C69.7495 82.061 69.2586 81.8263 68.846 81.4843L66.3053 79.701C66.211 79.8296 66.1167 79.9553 66.0195 80.0725L68.846 82.0558C69.2586 82.3979 69.7495 82.6325 70.2749 82.7389C70.8036 82.8017 71.418 82.5188 71.5266 81.9987C71.5638 81.8215 71.5266 81.6357 71.5609 81.4557C71.5957 81.2229 71.6857 81.0017 71.8234 80.8108C71.9612 80.6199 72.1426 80.4647 72.3526 80.3583C72.7771 80.1501 73.2505 80.0621 73.7215 80.1039C75.4562 80.1982 76.9309 81.3385 78.5084 82.0673C79.5479 82.5198 80.6258 82.8785 81.7292 83.139C82.3551 83.3019 83.0495 83.4505 83.6154 83.139C84.1813 82.8275 84.4413 82.1044 84.3985 81.45C84.3956 81.4014 84.387 81.3557 84.3813 81.3071Z" fill="black"/>
<path opacity="0.1" d="M67.0518 76.9566C67.087 77.0715 67.1128 77.1891 67.129 77.3082C67.1732 76.9986 67.1469 76.683 67.0518 76.3851C66.9661 76.1221 66.8232 75.8821 66.7289 75.6192C66.6601 75.4284 66.616 75.2296 66.5974 75.0276C66.5552 75.4203 66.6001 75.8174 66.7289 76.1907C66.8232 76.4537 66.9661 76.6966 67.0518 76.9566Z" fill="black"/>
</g>
<path d="M70.407 185.419C70.3875 185.501 70.3412 185.573 70.2756 185.625C70.206 185.661 70.1281 185.678 70.0498 185.674C69.0324 185.697 68.015 185.674 67.0005 185.745C66.0402 185.828 65.0771 186.031 64.1197 185.923C63.8135 185.933 63.5114 185.849 63.2554 185.68C62.9994 185.512 62.8021 185.268 62.6908 184.982C62.6304 184.858 62.577 184.73 62.5308 184.599C62.267 183.925 62.1341 183.207 62.1392 182.484C62.1392 182.292 62.1392 182.107 62.1392 181.912C62.1267 181.703 62.099 181.494 62.0564 181.289C61.9697 181.054 61.98 180.794 62.0849 180.566C62.4908 179.826 63.471 179.677 64.2255 179.62C65.9734 179.488 67.7312 179.617 69.4411 180.003C69.5754 180.66 69.7269 181.312 69.8869 181.964C70.005 182.442 70.1308 182.918 70.2642 183.393C70.3537 183.687 70.4262 183.985 70.4814 184.288C70.552 184.665 70.5265 185.054 70.407 185.419Z" fill="#464353"/>
<path opacity="0.06" d="M70.4065 185.419C70.3869 185.501 70.3407 185.573 70.2751 185.625C70.2055 185.661 70.1276 185.678 70.0493 185.674C69.0319 185.697 68.0145 185.674 67 185.745C66.0397 185.828 65.0766 186.031 64.1192 185.922C63.813 185.933 63.5109 185.849 63.2549 185.68C62.9989 185.512 62.8016 185.268 62.6903 184.982C62.6299 184.858 62.5765 184.73 62.5303 184.599H62.8961C64.0992 184.599 65.3053 184.556 66.5084 184.556C66.8714 184.556 67.2372 184.539 67.5973 184.496C67.9574 184.453 68.2517 184.393 68.5804 184.353C69.0723 184.306 69.5666 184.286 70.0607 184.293H70.4666C70.5409 184.668 70.5202 185.055 70.4065 185.419Z" fill="black"/>
<path d="M91.4546 180.111C91.136 180.483 90.7292 180.769 90.2714 180.943C88.2366 181.801 85.8846 181.415 83.784 180.717C83.3142 180.543 82.8317 180.404 82.3408 180.303C81.893 180.24 81.4413 180.209 80.9891 180.209C80.6661 180.209 80.3432 180.183 80.0202 180.163C79.2029 180.111 78.3884 180.031 77.5768 179.951C77.0109 179.91 76.4491 179.825 75.8964 179.697C75.7392 179.657 75.5882 179.595 75.4477 179.514C75.3277 179.461 75.2253 179.376 75.1524 179.267C75.0795 179.158 75.0392 179.03 75.0361 178.899C75.059 178.536 75.4362 178.328 75.7677 178.171C78.7085 176.899 81.9036 176.347 85.0758 175.904C85.3985 175.85 85.7127 175.754 86.0103 175.618C86.3676 175.475 86.4047 175.71 86.5819 175.972C86.6656 176.094 86.7614 176.207 86.8677 176.31C87.2122 176.621 87.6168 176.858 88.0566 177.007C88.8282 177.293 89.6541 177.37 90.4257 177.642C90.6592 177.723 90.8826 177.83 91.0916 177.962C91.2761 178.062 91.4352 178.204 91.5567 178.375C91.6782 178.547 91.7588 178.744 91.7925 178.951C91.8261 179.159 91.8119 179.371 91.7508 179.572C91.6898 179.773 91.5836 179.958 91.4403 180.111H91.4546Z" fill="#464353"/>
<path opacity="0.06" d="M91.4548 180.111C91.1363 180.483 90.7295 180.769 90.2717 180.943C88.2369 181.8 85.8848 181.414 83.7843 180.717C83.3144 180.542 82.832 180.404 82.3411 180.302C81.8932 180.24 81.4416 180.208 80.9893 180.208C80.6664 180.208 80.3434 180.182 80.0205 180.162C80.2834 179.914 80.5521 179.671 80.8264 179.437C81.0253 179.251 81.2543 179.1 81.5037 178.991C81.8143 178.889 82.1453 178.866 82.4668 178.925C84.1015 179.151 85.5705 180.297 87.2195 180.197C87.9877 180.108 88.7308 179.868 89.4057 179.491C89.9546 179.267 90.4438 178.919 90.8346 178.473C90.9526 178.32 91.0426 178.147 91.1004 177.962C91.285 178.062 91.4441 178.204 91.5655 178.375C91.687 178.547 91.7677 178.744 91.8013 178.951C91.835 179.158 91.8207 179.371 91.7597 179.572C91.6986 179.773 91.5924 179.957 91.4491 180.111H91.4548Z" fill="black"/>
<path d="M90.8795 130.435C90.5937 131.007 90.2279 131.627 89.6106 131.804C88.7132 132.062 87.8501 131.256 87.4586 130.409C86.925 129.168 86.8243 127.782 87.1728 126.476C87.3357 125.816 87.5844 125.181 87.7244 124.518C87.8255 123.96 87.8866 123.396 87.9073 122.829C87.9918 121.984 87.9716 121.131 87.8473 120.291C87.3872 117.835 85.2752 116.003 84.5722 113.591C84.2178 112.387 84.235 111.107 84.255 109.852C84.2483 109.535 84.2809 109.218 84.3521 108.908C84.3734 108.824 84.4021 108.742 84.4379 108.663C84.9094 107.616 86.3069 107.474 87.2786 106.865C87.8159 106.53 89.0362 105.453 89.4877 106.436C89.5852 106.655 89.658 106.884 89.7049 107.119C89.8907 107.994 89.8164 109.02 89.8621 109.846C90.0364 112.967 90.8138 116.083 90.4537 119.187C90.3678 119.717 90.3257 120.252 90.3279 120.788C90.4051 122.131 91.2453 123.295 91.6311 124.581C92.2255 126.516 91.7483 128.623 90.8795 130.435Z" fill="#FBBEBE"/>
<path opacity="0.1" d="M89.72 107.125C89.5076 107.047 89.275 107.047 89.0626 107.125L87.1279 107.696C86.4499 107.877 85.7891 108.117 85.1531 108.413C84.8755 108.55 84.6122 108.713 84.3672 108.902C84.3885 108.818 84.4171 108.736 84.4529 108.656C84.9245 107.61 86.322 107.467 87.2936 106.859C87.8309 106.524 89.0512 105.447 89.5028 106.43C89.6011 106.653 89.6739 106.886 89.72 107.125Z" fill="black"/>
<path d="M89.8462 106.907C89.7296 106.837 89.5981 106.794 89.4621 106.783C89.3261 106.772 89.1895 106.793 89.0631 106.844L87.1283 107.416C86.4503 107.597 85.7895 107.837 85.1535 108.134C84.816 108.298 84.5002 108.503 84.2133 108.745C83.3102 107.176 83.0702 105.315 82.9044 103.514C82.8129 102.465 82.7444 101.414 82.7043 100.37C82.6595 99.6194 82.6748 98.8662 82.7501 98.1178C82.8587 97.2602 83.1073 96.4227 83.2616 95.5709C83.3535 95.0723 83.4127 94.5681 83.4388 94.0617C83.5129 92.9552 83.4621 91.8439 83.2874 90.7488C83.1212 89.5848 82.8554 88.4372 82.4929 87.3187C82.31 86.807 82.0899 86.3125 81.8899 85.8095L81.8213 85.6322C81.46 84.7102 81.1649 83.7636 80.9382 82.7996C80.8467 82.4051 80.841 81.9906 80.5381 81.7219C80.8225 81.6877 81.1092 81.6762 81.3954 81.6876C81.4526 81.6876 81.5098 81.6876 81.5669 81.6876C82.741 81.7615 83.8721 82.157 84.8363 82.831C86.0782 83.7272 87.0221 84.976 87.5456 86.4154C88.1486 88.0247 88.2486 89.7741 88.3258 91.492C88.4801 94.8687 88.5754 98.2474 88.6116 101.628C88.6116 102.277 88.6401 102.968 89.0117 103.503C89.1159 103.635 89.2114 103.773 89.2974 103.917C89.4318 104.203 89.4118 104.521 89.5204 104.809C89.6001 104.983 89.6908 105.151 89.7919 105.312C89.9198 105.557 89.9911 105.828 90.0005 106.104C90.0099 106.38 89.9571 106.654 89.8462 106.907Z" fill="#464353"/>
<path d="M70.8232 73.3554C70.5374 73.2611 70.2516 73.161 69.9658 73.0696L70.5603 73.1153C70.6593 73.1818 70.748 73.2627 70.8232 73.3554Z" fill="#FBBEBE"/>
<path d="M82.5265 83.6716C82.4693 83.866 82.4121 84.0604 82.3493 84.2433C82.2042 84.713 82.0275 85.1723 81.8206 85.6182C81.4967 86.3507 81.0381 87.0159 80.4688 87.5791C80.2808 87.7771 80.0501 87.9296 79.7943 88.025C79.578 88.0804 79.3543 88.1016 79.1313 88.0879C78.3692 88.0879 77.6071 88.0764 76.845 88.0536C76.2517 88.0602 75.6595 88.0017 75.0789 87.8792C74.4398 87.7048 73.8322 87.4309 73.2784 87.0674C71.1436 85.7468 69.3889 83.7345 68.6372 81.3506C68.5429 81.0476 68.4772 80.6846 68.6858 80.4473C68.8911 80.2798 69.1497 80.1916 69.4146 80.1987H69.4489C70.0633 80.1187 70.6553 79.9155 71.1893 79.6012C71.5353 79.4241 71.8142 79.1392 71.9838 78.7895C72.0996 78.3749 72.0906 77.9355 71.9581 77.526L71.3236 74.6448C71.2576 74.1833 71.0843 73.7437 70.8178 73.3613C71.0036 73.4271 71.1893 73.4871 71.3894 73.5386C73.1555 74.0159 75.0874 73.7272 76.8193 74.3532C77.4823 74.5962 78.1454 75.0335 78.3454 75.7138C78.6798 76.8572 77.5624 78.0434 77.8824 79.1868C78.0968 79.9643 78.8884 80.413 79.5971 80.776L80.0744 81.019L81.3976 81.6907L81.5805 81.7822L81.6091 81.7965C82.0263 82.008 82.4664 82.271 82.6122 82.7198C82.6744 83.0388 82.6446 83.3689 82.5265 83.6716Z" fill="#FBBEBE"/>
<path opacity="0.1" d="M86.0131 90.383C85.9646 91.1137 85.7866 91.8299 85.4872 92.4982C84.9135 93.6541 84.6059 94.9238 84.587 96.2142C84.3669 100.073 82.9008 104.666 85.0014 107.908C85.0528 107.988 85.1042 108.068 85.1528 108.151C84.8153 108.315 84.4995 108.521 84.2126 108.763C83.3095 107.193 83.0695 105.332 82.9037 103.532C82.8122 102.483 82.7437 101.431 82.7036 100.387C82.6588 99.6366 82.6741 98.8834 82.7494 98.135C82.858 97.2775 83.1066 96.44 83.2609 95.5882C83.3528 95.0895 83.412 94.5853 83.4381 94.0789C83.5122 92.9724 83.4614 91.8611 83.2866 90.766C83.1205 89.602 82.8547 88.4544 82.4922 87.3359C82.3093 86.8243 82.0892 86.3298 81.8892 85.8267L81.8206 85.6495C81.4967 86.382 81.0381 87.0471 80.4688 87.6103C80.2808 87.8083 80.0501 87.9608 79.7943 88.0562C79.578 88.1116 79.3542 88.1328 79.1313 88.1191C78.3692 88.1191 77.6071 88.1077 76.845 88.0848C76.2517 88.0914 75.6595 88.0329 75.0789 87.9105C74.4398 87.7361 73.8322 87.4622 73.2784 87.0987C71.1436 85.7781 69.3889 83.7658 68.6372 81.3819C68.5429 81.0789 68.4772 80.7158 68.6858 80.4786C68.8911 80.3111 69.1497 80.2228 69.4146 80.2299H69.4489L72.021 83.4113C72.316 83.7481 72.5657 84.1219 72.764 84.5232C72.8024 84.6579 72.8824 84.777 72.9926 84.8634C73.0821 84.9043 73.1804 84.922 73.2784 84.9149C75.6933 84.9149 78.9113 84.9149 81.3262 84.9149C81.3341 84.4869 81.2104 84.0668 80.9718 83.7115C80.8975 83.7286 80.7975 83.7343 80.9518 83.6886C80.8121 82.7607 80.5124 81.8641 80.0658 81.0388C80.0391 80.9821 80.0096 80.9268 79.9772 80.8731C79.7853 80.5903 79.6423 80.2772 79.5543 79.9469C79.8592 79.8497 80.1868 79.8497 80.4917 79.9469C80.8432 80.0984 81.0261 80.4786 81.1804 80.8302C81.3119 81.116 81.4433 81.4219 81.5605 81.722C81.5605 81.7534 81.5891 81.7878 81.6005 81.8192C81.8497 82.4106 82.0096 83.0358 82.0749 83.6743C82.0921 83.9087 82.1492 84.206 82.3436 84.2831C82.3741 84.2971 82.4071 84.3049 82.4407 84.306C82.6419 84.2323 82.8605 84.2202 83.0686 84.2711C83.2768 84.322 83.4651 84.4336 83.6096 84.5918C83.8907 84.9139 84.0872 85.301 84.1812 85.7181C84.2741 86.135 84.4101 86.5412 84.587 86.93C84.9556 87.6332 84.3926 87.9476 85.0585 88.3792C85.3699 88.5506 85.6378 88.7911 85.8416 89.0824C86.0299 89.4883 86.0898 89.9421 86.0131 90.383Z" fill="black"/>
<path opacity="0.1" d="M69.4147 180.014C69.549 180.671 69.7005 181.323 69.8605 181.974L69.8434 182.014C68.5374 181.443 67.1999 180.846 65.7738 180.72C64.4506 180.606 63.0131 180.963 62.1129 181.923C62.1004 181.714 62.0727 181.505 62.03 181.3C61.9433 181.065 61.9536 180.805 62.0586 180.577C62.4644 179.837 63.4446 179.688 64.1991 179.631C65.947 179.499 67.7048 179.628 69.4147 180.014Z" fill="black"/>
<path opacity="0.1" d="M80.6716 84.2346C80.8059 84.2346 80.7573 84.2346 80.6916 84.2575C80.6259 84.2804 80.5173 84.2804 80.6716 84.2346Z" fill="black"/>
<path opacity="0.1" d="M86.882 176.31C85.6075 177.122 84.4098 178.049 83.3039 179.079C82.9828 179.423 82.5999 179.703 82.1751 179.905C81.7364 180.046 81.273 180.094 80.8147 180.045C79.0169 179.972 77.2248 179.795 75.4477 179.513C75.3277 179.461 75.2253 179.375 75.1524 179.266C75.0795 179.157 75.0392 179.03 75.0361 178.899C75.059 178.536 75.4362 178.327 75.7677 178.17C78.7085 176.898 81.9036 176.347 85.0758 175.904C85.3985 175.85 85.7127 175.754 86.0103 175.618C86.3676 175.475 86.4047 175.709 86.5819 175.972C86.6701 176.095 86.7707 176.208 86.882 176.31Z" fill="black"/>
<path d="M65.9134 80.9187C66.3335 81.2931 66.8136 81.5961 67.2395 81.9591C68.3826 82.9281 69.1028 84.283 69.8115 85.6036C69.3912 85.7556 68.9367 85.7863 68.4998 85.6922C68.2751 86.9603 68.313 88.2611 68.6112 89.5139C68.0394 89.9063 67.5952 90.4579 67.3338 91.1004C67.1306 91.7523 66.9909 92.4224 66.9165 93.1012C66.505 96.0759 66.0916 99.0505 65.6762 102.025C65.6679 102.316 65.5679 102.597 65.3904 102.828C65.3111 102.893 65.2384 102.964 65.1732 103.043C65.0858 103.235 65.0512 103.447 65.0732 103.657C65.0561 103.866 64.9189 104.115 64.7103 104.086C64.6089 104.062 64.519 104.003 64.4559 103.92C64.2472 103.699 64.0561 103.462 63.8843 103.211C62.1982 106.447 61.3866 109.934 60.4949 113.473C59.8576 115.994 59.2203 118.544 59.1889 121.145C59.1975 122.376 59.2748 123.605 59.4204 124.827L59.6718 127.336C59.8748 129.354 60.0777 131.375 60.2977 133.393C60.4406 134.674 60.5835 135.966 61.0436 137.172C61.7295 139.004 60.9693 141.071 61.2608 143.009C61.4894 144.527 61.9438 146.096 61.4866 147.56C61.3037 148.146 60.9836 148.68 60.7435 149.246C60.1548 150.653 60.0948 152.216 60.0434 153.74C59.9508 155.075 60.0006 156.417 60.192 157.741C60.4378 159.111 60.9893 160.451 60.8807 161.835C60.7293 163.804 59.2775 165.488 59.1003 167.454C58.9602 169.024 59.649 170.538 60.3892 171.931C60.935 172.957 60.1748 174.283 59.8862 175.412C59.3146 177.624 60.2663 179.94 61.4323 181.904C61.462 181.971 61.5147 182.026 61.5809 182.058C61.7152 182.106 61.8352 181.975 61.9238 181.864C62.8012 180.737 64.3559 180.311 65.782 180.434C67.208 180.557 68.5426 181.146 69.8515 181.729L71.7063 177.599C72.0207 176.898 72.3407 176.141 72.1836 175.389C72.0721 174.852 71.7263 174.397 71.4805 173.906C70.909 172.745 70.8804 171.393 70.8747 170.093L70.8404 162.746C72.2864 160.928 73.1695 158.768 73.7268 156.509C74.5818 159.686 74.6407 163.024 73.8983 166.228C73.7609 166.712 73.6653 167.208 73.6125 167.709C73.501 169.747 75.0986 171.47 75.5244 173.465C75.5657 173.618 75.5773 173.777 75.5587 173.934C75.5108 174.127 75.4306 174.311 75.3215 174.477C74.5556 175.867 74.6385 177.55 74.7499 179.134C76.754 179.483 78.7789 179.699 80.8114 179.783C81.2697 179.828 81.7325 179.781 82.1718 179.643C82.5967 179.439 82.9796 179.158 83.3006 178.814C84.5982 177.593 86.0229 176.515 87.5503 175.598C86.6974 174.182 85.5036 173.003 84.078 172.168C84.5381 171.49 85.5869 171.545 86.1985 171.002C86.5056 170.698 86.7061 170.303 86.7701 169.875C86.9987 168.755 86.7158 167.589 86.4328 166.488C85.8841 164.321 85.3326 162.146 84.4323 160.1C84.0252 159.258 83.6665 158.395 83.3578 157.513C82.609 155.049 83.132 152.368 82.5662 149.849C82.3833 149.043 82.0889 148.211 82.2947 147.408C82.609 146.171 84.0094 145.436 84.318 144.195C85.424 139.779 85.6212 135.203 86.2499 130.695C86.3906 129.834 86.466 128.964 86.4757 128.091C86.4757 127.179 86.3128 126.276 86.2471 125.367C85.9899 121.728 87.153 118.098 86.8558 114.462C86.6655 112.222 85.9275 110.062 84.7067 108.174C82.6062 104.929 84.0723 100.339 84.2923 96.4799C84.3088 95.1896 84.6156 93.9195 85.1897 92.7639C85.4916 92.0964 85.6707 91.3798 85.7184 90.6487C85.8065 90.198 85.7505 89.731 85.5583 89.3138C85.3572 89.0213 85.0899 88.7804 84.7781 88.6107C84.1123 88.1762 84.6753 87.8618 84.3066 87.1586C84.1293 86.7699 83.9932 86.3637 83.9008 85.9466C83.8073 85.5302 83.6107 85.144 83.3292 84.8233C83.1847 84.6651 82.9964 84.5534 82.7883 84.5025C82.5801 84.4516 82.3616 84.4638 82.1603 84.5374C81.8888 84.5374 81.8145 84.1773 81.7917 83.9057C81.7145 82.911 81.303 81.9763 80.9 81.0616C80.7457 80.71 80.5628 80.3298 80.2113 80.1784C79.9052 80.0826 79.5772 80.0826 79.2711 80.1784C79.3595 80.5098 79.5035 80.8239 79.6969 81.1073C80.1922 81.9766 80.5217 82.9303 80.6685 83.92C80.3828 84.0058 80.9543 83.92 80.6685 83.92C80.9244 84.2766 81.056 84.7075 81.0429 85.1463C78.6309 85.1463 75.4129 85.1463 72.998 85.1463C72.8999 85.154 72.8015 85.1363 72.7123 85.0948C72.6021 85.0078 72.5213 84.8891 72.4808 84.7547C72.2843 84.3531 72.0343 83.9801 71.7377 83.6456L68.9085 80.1555C68.8456 80.0643 68.7625 79.9889 68.6655 79.9354C68.5487 79.9024 68.4251 79.9024 68.3083 79.9354C67.3909 80.0697 66.7136 80.4528 65.9134 80.9187Z" fill="#6C63FF"/>
<path opacity="0.1" d="M76.0674 128.208C76.5552 128.202 77.0358 128.326 77.4592 128.568C77.6693 128.692 77.8435 128.868 77.9648 129.08C78.0861 129.291 78.1502 129.531 78.1508 129.775C78.1193 130.315 77.7049 130.744 77.4049 131.204C77.2191 131.484 77.0712 131.788 76.9648 132.107C76.9319 132.18 76.9239 132.261 76.9419 132.339C76.9762 132.447 77.0934 132.502 77.1934 132.55C77.557 132.715 77.8675 132.977 78.0902 133.308C78.3128 133.64 78.4387 134.026 78.4537 134.425C78.428 135.54 77.3391 136.443 77.3991 137.57C77.4264 137.804 77.4665 138.037 77.5192 138.267C77.6499 139.227 77.5165 140.204 77.1334 141.094C76.7876 141.992 76.316 142.835 75.9445 143.724C74.9414 146.139 74.7242 148.815 74.8013 151.441C74.8614 153.225 74.2298 154.923 73.6582 156.621C73.9812 153.201 74.0671 149.763 73.9154 146.331C73.8754 145.399 73.7582 144.518 73.8011 143.584C73.8697 142.1 74.6985 140.751 74.9099 139.296C75.03 138.464 74.95 137.618 74.97 136.778C75.01 135.063 75.4758 133.371 75.5072 131.65C75.5473 130.435 75.4358 129.183 76.0674 128.208Z" fill="black"/>
<path d="M64.1417 81.5306C63.5736 81.8139 63.0419 82.1652 62.5585 82.5768C62.0533 83.0788 61.6308 83.6577 61.3067 84.2918C60.9121 85.0108 60.5581 85.7513 60.2465 86.51C59.8435 87.4933 59.5091 88.5823 59.7863 89.6085C60.0378 90.5375 60.7494 91.2607 61.241 92.0867C61.7325 92.9128 62.0212 93.8818 62.3984 94.7879C62.9014 95.997 63.5902 97.1233 64.0874 98.3352C64.5847 99.5472 64.8848 100.908 64.5704 102.168C64.479 102.54 63.8759 102.829 63.8759 103.209C63.8759 103.838 64.7847 104.521 65.3878 104.704C66.0822 104.918 66.8395 104.598 67.4083 104.132C68.4514 103.306 69.0858 102.068 69.5545 100.822C70.309 98.8212 70.7119 96.6974 71.0749 94.5878C71.3378 93.0386 71.5836 91.4865 71.7236 89.9258C71.8522 88.5194 71.8923 87.0674 71.5207 85.7182C71.1741 84.4799 70.4997 83.358 69.5688 82.471C68.8258 81.7564 67.6083 80.796 66.528 80.7703C65.6735 80.7674 64.8733 81.1276 64.1417 81.5306Z" fill="#464353"/>
<path d="M72.2669 115.989C72.2359 116.184 72.1629 116.37 72.0528 116.535C71.9428 116.699 71.7984 116.837 71.6296 116.941C71.2924 117.145 70.9249 117.296 70.5408 117.386C69.7749 117.609 68.9632 117.815 68.1887 117.618C67.5801 117.42 67.0181 117.1 66.5369 116.678L57.8833 110.052C57.1881 109.559 56.5489 108.991 55.9771 108.36C55.6488 107.952 55.3472 107.523 55.074 107.076C54.7124 106.565 54.4292 106.002 54.2338 105.407C54.164 105.145 54.1294 104.875 54.1309 104.604C54.1286 104.347 54.1916 104.094 54.3138 103.869C54.5224 103.52 54.9683 103.449 55.3341 103.352C56.5619 103.034 57.8363 102.937 59.0979 103.066C59.2087 103.06 59.3183 103.091 59.41 103.154C59.5018 103.216 59.5708 103.307 59.6066 103.412C59.7981 103.763 59.9638 104.129 60.1353 104.495C60.3985 105.119 60.7414 105.706 61.1555 106.241C61.5545 106.675 61.9792 107.085 62.4273 107.468C63.3418 108.325 64.0906 109.354 65.0651 110.143C66.194 111.055 67.5657 111.601 68.8518 112.273C70.1378 112.944 71.4067 113.816 72.0526 115.117C72.2024 115.382 72.2766 115.684 72.2669 115.989Z" fill="#FBBEBE"/>
<path opacity="0.1" d="M82.283 69.7622C82.2833 71.5669 81.5944 73.3035 80.357 74.617C79.1197 75.9305 77.4274 76.7216 75.6263 76.8285C73.8251 76.9354 72.0512 76.3502 70.6671 75.1923C69.2831 74.0345 68.3936 72.3916 68.1804 70.5996C67.9673 68.8075 68.4466 67.0017 69.5204 65.5515C70.5942 64.1012 72.1814 63.116 73.9574 62.7973C75.7333 62.4786 77.5639 62.8505 79.0748 63.837C80.5858 64.8234 81.6628 66.3499 82.0858 68.1043C82.217 68.6472 82.2832 69.2037 82.283 69.7622Z" fill="black"/>
<path d="M82.283 69.4763C82.2833 71.281 81.5944 73.0176 80.357 74.3311C79.1197 75.6445 77.4274 76.4356 75.6263 76.5426C73.8251 76.6495 72.0512 76.0642 70.6671 74.9064C69.2831 73.7486 68.3936 72.1057 68.1804 70.3137C67.9673 68.5216 68.4466 66.7159 69.5204 65.2656C70.5942 63.8153 72.1814 62.8301 73.9574 62.5114C75.7333 62.1927 77.5639 62.5646 79.0748 63.5511C80.5858 64.5375 81.6628 66.064 82.0858 67.8184C82.217 68.3613 82.2832 68.9178 82.283 69.4763Z" fill="#FBBEBE"/>
<path opacity="0.1" d="M60.1353 104.483C59.8095 104.692 59.3265 104.623 58.9236 104.532C57.3346 104.177 55.5799 103.923 54.1309 104.603C54.1286 104.347 54.1916 104.094 54.3138 103.869C54.5224 103.52 54.9683 103.449 55.3341 103.352C56.5619 103.034 57.8363 102.937 59.0979 103.066C59.2087 103.06 59.3183 103.091 59.41 103.154C59.5018 103.216 59.5708 103.307 59.6066 103.412C59.7981 103.752 59.9638 104.117 60.1353 104.483Z" fill="black"/>
<path d="M57.149 94.8593C56.7975 96.0027 56.5088 97.1775 55.8201 98.1465C55.5924 98.4013 55.421 98.7013 55.3171 99.0269C55.3093 99.2673 55.2699 99.5056 55.1999 99.7358C55.1028 99.9301 54.897 100.059 54.8141 100.259C54.6912 100.545 54.8513 100.913 54.6884 101.182C54.6121 101.29 54.5207 101.386 54.4169 101.468C54.0282 101.828 53.931 102.403 53.9225 102.934C53.9139 103.466 53.9653 104.009 53.791 104.509C55.3 103.609 57.2204 103.878 58.9352 104.261C59.4124 104.366 60.004 104.446 60.3127 104.063C60.6213 103.68 60.4441 103.177 60.487 102.717C60.5441 102.117 60.9557 101.619 61.21 101.074C61.4958 100.459 61.593 99.7729 61.813 99.1326C62.2674 97.7863 63.242 96.6887 63.8678 95.4167C64.0995 94.9792 64.2377 94.4984 64.2737 94.0046C64.2521 93.3647 64.0849 92.7381 63.785 92.1724C63.1902 90.8551 62.4826 89.5917 61.6701 88.3964C61.3072 87.8619 60.6813 86.8729 60.1183 87.7276C59.6611 88.4164 59.3753 89.294 59.038 90.0486C58.3113 91.6123 57.6805 93.2189 57.149 94.8593Z" fill="#464353"/>
<path d="M82.9351 83.7628C82.077 83.8219 81.2165 83.6886 80.4165 83.3726C79.6165 83.0566 78.8972 82.5659 78.3111 81.9362C78.2124 81.8464 78.141 81.7304 78.1053 81.6018C78.089 81.4346 78.1359 81.2673 78.2368 81.133C78.5797 80.6042 79.1713 80.2555 79.4456 79.6867C79.72 79.1178 79.6257 78.4633 79.6514 77.8401C79.6971 76.7225 80.1372 75.6163 80.1744 74.5158C80.1876 74.2342 80.1665 73.952 80.1115 73.6754C79.98 73.2648 79.8994 72.8395 79.8715 72.4092C79.9086 71.5716 80.6631 70.9199 80.7888 70.0938C80.9517 69.0419 80.0801 68.1272 79.2027 67.5213C78.5337 67.0572 77.8075 66.6815 77.0422 66.4036C76.5721 66.2352 76.0854 66.1174 75.5904 66.052C74.6674 65.9273 73.728 66.0324 72.8554 66.3579C72.4942 66.4942 72.1522 66.6767 71.838 66.901C71.6508 67.0194 71.495 67.1812 71.3836 67.3726C71.292 67.5882 71.2509 67.8219 71.2636 68.0558C71.2464 69.2249 71.3779 70.4683 70.8206 71.4859C70.5348 72.0318 70.049 72.4749 69.8118 73.0523C69.7147 73.2925 69.654 73.5459 69.6317 73.8041C69.6031 74.0718 69.5888 74.3409 69.5889 74.6101C69.5717 76.1165 69.5889 77.7058 70.3548 79.0121C70.625 79.407 70.8703 79.8185 71.0892 80.2441C71.1954 80.4593 71.2446 80.6983 71.232 80.938C71.2195 81.1777 71.1458 81.4102 71.0178 81.6132C70.8631 81.7985 70.6674 81.9453 70.4462 82.042C69.8788 82.3143 69.2613 82.4666 68.6323 82.4892C68.0034 82.5118 67.3765 82.4044 66.791 82.1735C67.4757 81.5245 67.946 80.682 68.1391 79.7584C68.3321 78.8349 68.2387 77.8745 67.8713 77.0055C67.6648 76.6545 67.5307 76.2657 67.4769 75.8621C67.5056 75.4985 67.6025 75.1436 67.7627 74.8159C68.1544 73.7418 68.2152 72.5749 67.937 71.4659C67.7627 70.7856 67.4598 70.1281 67.4055 69.4278C67.3601 68.8992 67.3832 68.367 67.474 67.8443C67.6307 66.9091 68.0426 66.0353 68.6645 65.3196C69.2863 64.6038 70.0938 64.0738 70.9978 63.7882C71.1435 63.7396 71.2836 63.6938 71.4436 63.6538C72.137 63.4999 72.8454 63.4241 73.5556 63.428C75.1417 63.3766 76.7507 63.3308 78.2796 63.7453C79.1773 63.9804 80.0124 64.4097 80.726 65.003C81.2325 65.4289 81.6369 65.9633 81.9091 66.5666C82.0579 66.9141 82.1699 67.2762 82.2435 67.647C82.3092 67.9529 82.3578 68.2616 82.4064 68.5703C82.7522 70.7684 83.098 73.0094 82.7293 75.2047C82.5836 76.0622 82.3292 76.9197 82.2149 77.7944C81.9377 79.8096 82.4378 81.8133 82.9351 83.7628Z" fill="#464353"/>
<path d="M72.7816 86.5868C73.0751 86.5868 73.3131 86.3488 73.3131 86.0552C73.3131 85.7617 73.0751 85.5237 72.7816 85.5237C72.488 85.5237 72.25 85.7617 72.25 86.0552C72.25 86.3488 72.488 86.5868 72.7816 86.5868Z" fill="white"/>
<path d="M81.7523 86.3354C82.0458 86.3354 82.2838 86.0974 82.2838 85.8038C82.2838 85.5102 82.0458 85.2722 81.7523 85.2722C81.4587 85.2722 81.2207 85.5102 81.2207 85.8038C81.2207 86.0974 81.4587 86.3354 81.7523 86.3354Z" fill="white"/>
<path opacity="0.1" d="M72.7808 59.1858L71.6377 57.0281C71.7102 56.9418 71.7895 56.8615 71.8749 56.788C72.04 56.6863 72.2333 56.6402 72.4265 56.6565L72.7808 59.1858Z" fill="black"/>
<path opacity="0.1" d="M75.9333 56.5565L74.6387 58.4712L73.9014 56.3707C74.216 56.2356 74.5565 56.1712 74.8988 56.1821C75.2621 56.2484 75.6117 56.3749 75.9333 56.5565Z" fill="black"/>
<g opacity="0.1">
<path opacity="0.1" d="M71.0178 81.0474C70.8631 81.2326 70.6674 81.3794 70.4462 81.476C69.4328 81.961 68.2767 82.0575 67.1968 81.7475C67.0713 81.9002 66.9357 82.0444 66.791 82.1791C67.3765 82.4099 68.0034 82.5174 68.6323 82.4947C69.2613 82.4721 69.8788 82.3199 70.4462 82.0476C70.6674 81.9509 70.8631 81.8042 71.0178 81.6189C71.1161 81.4763 71.1832 81.3144 71.2148 81.144C71.2463 80.9737 71.2415 80.7985 71.2007 80.6301C71.1721 80.7813 71.1096 80.924 71.0178 81.0474Z" fill="black"/>
<path opacity="0.1" d="M67.9178 71.4733C68.0111 71.8478 68.0657 72.2309 68.0807 72.6165C68.1136 72.04 68.0587 71.4618 67.9178 70.9018C67.7434 70.2216 67.4405 69.5643 67.3862 68.8641C67.3862 68.7755 67.3862 68.6869 67.3719 68.5955C67.3582 68.8755 67.363 69.1562 67.3862 69.4357C67.4405 70.1359 67.7434 70.7932 67.9178 71.4733Z" fill="black"/>
<path opacity="0.1" d="M82.7098 75.2135C82.8311 74.4576 82.8828 73.6921 82.8641 72.9268C82.8541 73.5014 82.8025 74.0746 82.7098 74.6418C82.5641 75.4993 82.3097 76.3569 82.1954 77.2315C82.1364 77.7007 82.1145 78.1738 82.1297 78.6465C82.1375 78.3645 82.1594 78.083 82.1954 77.8032C82.3097 76.9285 82.5641 76.0796 82.7098 75.2135Z" fill="black"/>
<path opacity="0.1" d="M67.8603 76.4395C67.7107 76.1581 67.59 75.8622 67.5002 75.5564C67.476 75.6594 67.4645 75.765 67.4659 75.8708C67.5198 76.2743 67.6539 76.663 67.8603 77.0139C68.0701 77.493 68.1912 78.0062 68.2176 78.5286C68.2693 77.8136 68.1467 77.0967 67.8603 76.4395Z" fill="black"/>
<path opacity="0.1" d="M80.1109 73.6637C80.136 73.7941 80.1542 73.9257 80.1652 74.0581C80.1652 74.0152 80.1652 73.9752 80.1652 73.9323C80.1785 73.6507 80.1573 73.3686 80.1024 73.0921C80.0395 72.792 79.9366 72.4948 79.888 72.1919C79.8738 72.2597 79.8652 72.3285 79.8623 72.3977C79.893 72.8283 79.9765 73.2535 80.1109 73.6637Z" fill="black"/>
<path opacity="0.1" d="M78.3109 81.3533C78.2669 81.3073 78.2259 81.2586 78.188 81.2075C78.1177 81.3221 78.0885 81.4571 78.1052 81.5905C78.1409 81.7191 78.2122 81.835 78.3109 81.9248C78.8971 82.5543 79.6164 83.045 80.4164 83.3609C81.2164 83.6769 82.0769 83.8101 82.935 83.751C82.8864 83.5624 82.8378 83.3766 82.7921 83.1795C81.9574 83.2178 81.1244 83.0744 80.3507 82.7591C79.577 82.4438 78.881 81.9641 78.3109 81.3533Z" fill="black"/>
<path opacity="0.1" d="M80.7833 69.5501C80.782 69.5397 80.782 69.5292 80.7833 69.5187C80.9462 68.467 80.0746 67.5525 79.1972 66.9466C78.5282 66.4827 77.802 66.1071 77.0367 65.8292C76.5666 65.6608 76.0799 65.543 75.5849 65.4777C74.662 65.353 73.7225 65.4581 72.8499 65.7835C72.4888 65.9198 72.1468 66.1023 71.8325 66.3265C71.6454 66.4449 71.4895 66.6066 71.3781 66.798C71.2865 67.0136 71.2455 67.2472 71.2581 67.4811C71.2581 67.6783 71.2581 67.8754 71.2581 68.0755V68.0526C71.2455 67.8188 71.2865 67.5851 71.3781 67.3696C71.4895 67.1782 71.6454 67.0164 71.8325 66.8981C72.1468 66.6739 72.4888 66.4913 72.8499 66.3551C73.7225 66.0296 74.662 65.9246 75.5849 66.0493C76.0799 66.1146 76.5666 66.2324 77.0367 66.4008C77.802 66.6787 78.5282 67.0542 79.1972 67.5182C79.926 68.0098 80.6433 68.7185 80.7833 69.5501Z" fill="black"/>
<path opacity="0.1" d="M70.8206 70.9194C70.5348 71.4654 70.049 71.9084 69.8118 72.4858C69.7147 72.7261 69.654 72.9794 69.6317 73.2376C69.6031 73.5053 69.5888 73.7744 69.5889 74.0437C69.5889 74.2866 69.5889 74.5325 69.5889 74.7783C69.5889 74.724 69.5889 74.6697 69.5889 74.6153C69.5888 74.3461 69.6031 74.077 69.6317 73.8093C69.654 73.5511 69.7147 73.2977 69.8118 73.0575C70.049 72.4858 70.5234 72.0371 70.8206 71.4911C71.2807 70.6336 71.2721 69.6474 71.2636 68.667C71.3015 69.4427 71.1495 70.2159 70.8206 70.9194Z" fill="black"/>
</g>
<path opacity="0.1" d="M82.2235 67.6671C82.1842 67.7231 82.1381 67.7739 82.0864 67.8186C81.9855 67.9016 81.8728 67.9691 81.752 68.0187C80.9204 68.3789 80.9546 67.2041 80.5203 66.801C80.2417 66.5955 79.8998 66.4943 79.5543 66.5152C78.7179 66.4733 77.8805 66.4361 77.0422 66.4037C75.6447 66.3522 74.2501 66.3265 72.8555 66.358C72.1867 66.3694 71.5199 66.397 70.855 66.4409C70.0833 66.4923 69.2546 66.5924 68.5972 66.9582C68.3722 67.082 68.1686 67.2413 67.9942 67.4299C67.8371 67.6014 67.6713 67.8186 67.4541 67.8586C67.6107 66.9234 68.0227 66.0497 68.6445 65.3339C69.2664 64.6182 70.0738 64.0882 70.9778 63.8026C72.4414 62.7122 74.2696 62.2299 76.0804 62.4563C77.8912 62.6827 79.5444 63.6003 80.6946 65.0174C81.2011 65.4433 81.6055 65.9776 81.8777 66.5809C82.0308 66.9298 82.1467 67.2939 82.2235 67.6671Z" fill="black"/>
<path d="M81.7516 67.447C80.9199 67.8071 80.9542 66.6323 80.5198 66.2293C80.2413 66.0238 79.8994 65.9226 79.5539 65.9434C76.6579 65.7529 73.7534 65.7281 70.8545 65.8691C69.8228 65.9377 68.6911 66.0921 67.9967 66.8581C67.8195 67.0525 67.6337 67.304 67.3679 67.2955C67.2793 66.7238 67.2165 66.1292 67.1736 65.5433C67.1477 65.3237 67.1593 65.1014 67.2079 64.8858C67.2793 64.64 67.4422 64.4313 67.5251 64.1912C67.6067 63.8858 67.6357 63.5688 67.6109 63.2537C67.6234 62.0875 67.9367 60.9443 68.5205 59.9348C69.1043 58.9252 69.9387 58.0835 70.9431 57.4911C71.1952 57.3678 71.4289 57.21 71.6376 57.0223C71.71 56.936 71.7894 56.8557 71.8748 56.7822C72.0398 56.6805 72.2332 56.6344 72.4264 56.6507C72.5635 56.6507 72.7121 56.6507 72.8322 56.6507C73.2018 56.61 73.5631 56.5136 73.9039 56.3649C74.2185 56.2297 74.559 56.1653 74.9013 56.1762C75.2646 56.2426 75.6142 56.3691 75.9358 56.5507C76.0904 56.6252 76.2523 56.6836 76.4188 56.7251C76.6789 56.7851 76.9475 56.7822 77.2076 56.8337C77.6288 56.9409 78.0288 57.1188 78.3907 57.3596C78.8226 57.5926 79.2222 57.8808 79.5796 58.2171C79.9681 58.6613 80.2792 59.1676 80.4998 59.715C80.8783 60.4711 81.1661 61.2694 81.3572 62.0932C81.5887 63.2765 81.4744 64.5571 82.0231 65.6319C82.3574 66.3064 82.6632 67.0554 81.7516 67.447Z" fill="#FED253"/>
<path opacity="0.1" d="M67.2656 66.5491C67.2656 66.5491 73.19 61.1592 82.0122 65.6288C82.0122 65.6288 72.0525 63.3626 67.2656 66.5491Z" fill="black"/>
<path d="M2.71196 94.0964C1.90604 92.7758 0.694308 91.5667 0.882927 90.0689C3.10063 90.3233 5.20401 89.783 7.23595 88.8426C9.26789 87.9022 11.1541 86.6816 13.0574 85.484C13.8062 85.0123 14.5521 84.5493 15.2951 84.1205C16.4726 83.4459 17.6414 82.6913 18.8389 82.031C20.5536 81.0877 22.3026 80.316 24.2288 80.1673C24.5777 80.1401 24.9278 80.1315 25.2776 80.1416C27.6497 80.1873 30.1074 80.8248 32.1937 79.7614L32.3223 79.6928C33.5054 79.044 34.3656 77.9406 35.3802 77.0459C36.1096 76.415 36.9037 75.8631 37.7494 75.3995C39.2897 74.542 40.9587 73.8559 42.5334 73.047C42.9365 72.8394 43.3192 72.5944 43.6766 72.3153L43.9452 72.1009L44.0052 72.0494C44.0709 71.9951 44.1367 71.9408 44.1996 71.8836L44.3224 71.775L44.4482 71.6607L44.5454 71.5692L44.7025 71.4206L44.7197 71.4006L44.9683 71.1547L45.0683 71.0547L45.2427 70.8746L45.3456 70.7717C45.5199 70.5916 45.6942 70.4087 45.8714 70.2315C46.0486 70.0543 46.2887 69.8141 46.503 69.6169L46.7088 69.434L46.7688 69.3825L46.9345 69.2453L47.0117 69.1796L47.1746 69.0538L47.2546 68.9909C47.3346 68.9309 47.4175 68.8737 47.5004 68.8166C47.5766 68.7637 47.6569 68.7169 47.7404 68.6765L47.206 67.3816L48.7436 66.7471L69.9489 118.213L68.4085 118.847L56.2797 89.4057L56.194 89.4915C53.3844 92.2645 49.9428 94.3128 46.1658 95.4598H46.1429C44.0309 96.0973 41.6675 96.5489 39.8899 97.7323C39.2596 98.142 38.7118 98.6666 38.2752 99.2787C37.858 99.8732 37.5665 100.551 37.1321 101.122C37.0492 101.228 36.9577 101.331 36.8663 101.428C36.3465 101.943 35.7715 102.4 35.1516 102.789L34.8801 102.975C33.0388 104.27 31.1205 105.453 29.1358 106.516C27.9904 107.112 26.7963 107.61 25.5663 108.003C24.6718 108.288 23.7487 108.497 22.8542 108.78C22.2525 108.962 21.6681 109.198 21.108 109.483C19.5934 110.275 18.4302 111.516 17.3299 112.839C16.3668 113.999 15.4523 115.229 14.3949 116.286C13.7319 116.944 12.7231 117.567 11.9228 117.181L11.76 117.087C11.7857 117.044 11.8057 117.001 11.8285 116.955C12.4601 115.632 11.6828 113.997 10.6368 112.936C10.5282 112.825 10.4168 112.716 10.3024 112.613C10.1881 112.51 9.98236 112.327 9.81946 112.184C8.92495 111.415 7.97328 110.701 7.35313 109.709C6.87979 108.876 6.55851 107.965 6.40432 107.019C6.11853 105.673 5.92705 104.287 5.19544 103.14C4.71532 102.383 4.00085 101.737 3.48072 101.011C3.15194 100.581 2.9358 100.076 2.85199 99.5416C2.73482 98.6127 3.16636 97.7037 3.32926 96.7776C3.37772 96.5252 3.39785 96.2683 3.38927 96.0115C3.32957 95.326 3.09649 94.6669 2.71196 94.0964Z" fill="url(#paint0_linear)"/>
<path d="M67.8698 118.405L69.3838 117.781L48.5318 67.1808L47.0178 67.805L67.8698 118.405Z" fill="#D6D8E1"/>
<path d="M5.70698 102.96C6.42431 104.089 6.61578 105.45 6.893 106.773C7.04675 107.704 7.36309 108.599 7.82752 109.42C8.4391 110.395 9.37362 111.098 10.251 111.853C10.411 111.993 10.5711 112.138 10.7254 112.276C10.8368 112.376 10.9483 112.484 11.054 112.59C12.0829 113.633 12.8459 115.243 12.2258 116.543C12.2067 116.588 12.1848 116.631 12.16 116.672C12.2102 116.706 12.2628 116.737 12.3172 116.763C13.106 117.146 14.0977 116.535 14.7493 115.886C15.7895 114.845 16.6897 113.639 17.6357 112.499C18.716 111.195 19.862 109.975 21.3509 109.197C21.9006 108.916 22.4745 108.684 23.0656 108.505C23.943 108.22 24.8518 108.017 25.732 107.742C26.941 107.355 28.1151 106.867 29.2415 106.282C31.1961 105.235 33.0858 104.072 34.9 102.797L35.1687 102.614C35.7779 102.232 36.3433 101.785 36.8548 101.279C36.9463 101.182 37.0349 101.082 37.1177 100.976C37.5579 100.405 37.8465 99.7501 38.2609 99.1641C38.6907 98.5622 39.2297 98.0463 39.8499 97.6434C41.5989 96.4801 43.9195 96.0341 45.9971 95.4081H46.02C49.7327 94.2785 53.116 92.2648 55.8796 89.5398C56.1087 89.3485 56.2799 89.097 56.374 88.8138C56.4626 88.4108 56.2454 88.0106 56.0368 87.6561C55.7939 87.2388 55.5567 86.8215 55.3223 86.3984C54.2684 84.4799 53.3275 82.5013 52.5045 80.4729C52.3244 80.027 52.1501 79.584 51.9815 79.1352C51.549 77.9918 51.1546 76.8323 50.7983 75.6565C50.6812 75.2678 50.5669 74.8762 50.4583 74.4846C50.4382 74.4102 50.4154 74.3302 50.3954 74.2445C49.921 72.3379 49.2865 67.8759 47.3317 69.2108C46.7504 69.6265 46.2097 70.0965 45.7171 70.6143C45.337 71.0002 44.9654 71.3975 44.5739 71.7805C44.255 72.0942 43.9182 72.3891 43.5651 72.6638C43.2068 72.9382 42.8241 73.1793 42.4219 73.3841C40.8701 74.1787 39.2297 74.8447 37.7179 75.6965C36.8854 76.1515 36.1036 76.6939 35.3859 77.3144C34.3885 78.1948 33.5426 79.281 32.3794 79.9184L32.2537 79.987C30.2017 81.0303 27.7868 80.4043 25.452 80.3586C25.1088 80.35 24.7654 80.3585 24.4231 80.3843C22.5284 80.5272 20.7965 81.2876 19.1218 82.2166C17.9443 82.8683 16.7955 83.6058 15.6381 84.2718C14.9064 84.692 14.1748 85.1464 13.4375 85.6124C11.5685 86.79 9.6737 88.0249 7.72178 88.9167C5.72127 89.8257 3.65504 90.3688 1.47449 90.1201C1.28873 91.5922 2.4776 92.7813 3.27209 94.079C3.65367 94.6368 3.88499 95.2836 3.94368 95.957C3.95419 96.2088 3.93597 96.461 3.88938 96.7087C3.72934 97.6206 3.31781 98.5124 3.42069 99.4299C3.50179 99.9531 3.71308 100.448 4.03513 100.868C4.5324 101.579 5.23258 102.217 5.70698 102.96Z" fill="#F86D70"/>
<path d="M63.8104 108.914C63.8104 108.914 66.3139 111.098 68.8517 112.262C71.3895 113.425 69.7091 117.598 69.7091 117.598C69.7091 117.598 67.0198 118.216 65.1365 115.597C63.2531 112.979 63.8104 108.914 63.8104 108.914Z" fill="#FBBEBE"/>
<path d="M198.713 146.088C198.713 146.088 192.083 154.814 186.581 154.886C181.08 154.957 177.851 158.562 180.463 160.814C183.075 163.066 211.539 159.528 211.539 159.528C211.539 159.528 211.808 148.803 209.341 147.237C206.875 145.67 198.713 146.088 198.713 146.088Z" fill="#444176"/>
<path d="M270.002 156.564C270.002 156.564 271.016 163.476 267.881 168.189C264.746 172.903 273.546 174.721 273.546 174.721C273.546 174.721 279.939 176.501 280.404 170.184C280.87 163.867 280.719 159.036 280.119 158.522C279.519 158.007 279.018 154.454 279.018 154.454L270.002 156.564Z" fill="#444176"/>
<path d="M169.634 169.618C169.634 169.618 169.402 147.263 191.519 138.176L196.655 128.403L199.118 122.4C200.011 120.226 201.414 118.299 203.21 116.784C205.005 115.268 207.14 114.208 209.432 113.693L213.416 112.799L214.648 107.608C215.304 104.833 216.758 102.311 218.831 100.354C220.904 98.3961 223.504 97.0882 226.311 96.5915C228.734 96.1417 231.192 95.9121 233.656 95.9055C234.746 95.9219 235.813 96.2201 236.754 96.7711C237.695 97.322 238.478 98.107 239.026 99.0498C239.026 99.0498 259.979 98.8182 260.908 110.229C260.908 110.229 263.006 120.705 266.032 122.569C266.032 122.569 271.154 121.405 276.275 128.857L281.862 147.951C281.862 147.951 296.529 161.689 292.105 174.249C292.105 174.249 286.052 182.864 255.321 177.042C255.321 177.042 222.496 187.046 205.023 173.326C205.02 173.343 175.921 178.931 169.634 169.618Z" fill="#A8A8A8"/>
<path opacity="0.1" d="M184.301 166.125C184.301 166.125 188.959 159.605 188.725 154.946C188.49 150.287 189.822 138.939 189.822 138.939" stroke="black" stroke-miterlimit="10"/>
<path opacity="0.1" d="M201.296 148.66C201.296 148.66 205.951 140.045 205.486 135.389C205.486 135.389 210.375 126.528 214.099 127.236" stroke="black" stroke-miterlimit="10"/>
<path opacity="0.1" d="M226.906 124.209C226.906 124.209 239.709 119.553 240.41 115.828" stroke="black" stroke-miterlimit="10"/>
<path opacity="0.1" d="M231.562 134.923C231.562 134.923 245.065 128.869 245.065 127.237H251.812C251.812 127.237 261.592 140.045 260.429 145.633" stroke="black" stroke-miterlimit="10"/>
<path opacity="0.1" d="M247.394 144.235C247.394 144.235 234.356 143.304 229.698 147.031C225.04 150.758 216.661 152.619 216.661 152.619C216.661 152.619 211.771 163.098 209.907 164.959C208.044 166.82 205.018 173.343 205.018 173.343" stroke="black" stroke-miterlimit="10"/>
<path opacity="0.1" d="M247.394 156.578C247.394 156.578 248.788 161.466 250.652 164.261C252.515 167.057 255.307 177.067 255.307 177.067" stroke="black" stroke-miterlimit="10"/>
<path opacity="0.1" d="M269.276 170.781C269.276 170.781 272.231 179.005 274.829 179.085" stroke="black" stroke-miterlimit="10"/>
<path opacity="0.1" d="M249.92 135.483C249.92 135.483 257.596 137.558 260.806 142.586C264.015 147.614 273.817 152.173 273.817 152.173" stroke="black" stroke-miterlimit="10"/>
<path opacity="0.1" d="M253.213 110.712C253.213 110.712 253.213 121.423 256.239 121.423C259.266 121.423 266.019 122.586 266.019 122.586" stroke="black" stroke-miterlimit="10"/>
<path opacity="0.1" d="M238.38 97.9922C238.38 97.9922 237.606 116.495 233.647 121.285" stroke="black" stroke-miterlimit="10"/>
<g opacity="0.05">
<path opacity="0.05" d="M281.382 147.728L275.795 128.634C270.674 121.182 265.553 122.346 265.553 122.346C262.526 120.482 260.431 110.003 260.431 110.003C259.5 98.5922 238.546 98.8266 238.546 98.8266C237.997 97.8822 237.213 97.0962 236.27 96.5451C235.326 95.9941 234.257 95.6968 233.165 95.6824C232.176 95.6824 231.164 95.7138 230.152 95.7967C230.724 95.8539 231.272 95.9349 231.796 96.0397L233.425 98.8352C233.425 98.8352 254.376 98.6008 255.307 110.012C255.307 110.012 257.405 120.491 260.431 122.354C260.431 122.354 265.553 121.188 270.674 128.643L276.261 147.737C276.261 147.737 290.928 161.474 286.504 174.034C286.504 174.034 283.517 178.285 271.094 178.799C287.844 179.414 291.625 174.034 291.625 174.034C296.049 161.466 281.382 147.728 281.382 147.728Z" fill="black"/>
<path opacity="0.05" d="M199.433 173.108C194.505 173.995 189.521 174.54 184.518 174.74C190.35 174.963 196.418 174.331 200.327 173.794C200.024 173.563 199.727 173.34 199.433 173.108Z" fill="black"/>
<path opacity="0.05" d="M249.719 176.835C242.552 178.846 235.174 180.012 227.736 180.311C238.468 180.699 248.633 178.462 252.823 177.387C251.811 177.218 250.785 177.027 249.719 176.835Z" fill="black"/>
</g>
<path d="M63.6875 213.155C63.6875 213.155 70.092 212.958 72.021 211.583C73.9501 210.208 81.8692 208.567 82.3494 210.771C82.8295 212.975 91.9718 221.733 84.7414 221.793C77.511 221.853 67.9457 220.667 66.0195 219.492C64.0933 218.317 63.6875 213.155 63.6875 213.155Z" fill="#A8A8A8"/>
<path opacity="0.2" d="M84.8728 221.024C77.6424 221.084 68.0743 219.898 66.1481 218.737C64.682 217.842 64.0962 214.635 63.9018 213.157H63.6875C63.6875 213.157 64.0933 218.323 66.0195 219.495C67.9457 220.667 77.5138 221.853 84.7414 221.796C86.8305 221.778 87.5506 221.035 87.5106 219.935C87.222 220.598 86.4246 221.012 84.8728 221.024Z" fill="black"/>
<path d="M219.824 197.091C219.824 197.091 212.282 195.581 210.273 193.569C208.264 191.557 199.213 188.041 198.207 190.553C197.201 193.066 184.635 201.615 193.18 203.13C201.725 204.645 213.288 205.131 215.803 204.137C218.318 203.142 219.824 197.091 219.824 197.091Z" fill="#A8A8A8"/>
<path opacity="0.2" d="M193.18 202.181C201.728 203.688 213.288 204.182 215.803 203.185C217.715 202.419 219.046 198.74 219.572 197.028L219.824 197.082C219.824 197.082 218.315 203.113 215.803 204.119C213.291 205.125 201.728 204.622 193.18 203.113C190.713 202.679 190.008 201.655 190.273 200.363C190.485 201.215 191.345 201.864 193.18 202.181Z" fill="black"/>
<path opacity="0.1" d="M147.609 32.8291H145.814C146.148 32.8291 146.468 32.6966 146.704 32.4608C146.939 32.2249 147.072 31.905 147.072 31.5714C147.072 31.2379 146.939 30.918 146.704 30.6821C146.468 30.4462 146.148 30.3137 145.814 30.3137H131.274C130.94 30.3137 130.62 30.4462 130.384 30.6821C130.149 30.918 130.016 31.2379 130.016 31.5714C130.016 31.905 130.149 32.2249 130.384 32.4608C130.62 32.6966 130.94 32.8291 131.274 32.8291H133.068C132.746 32.8445 132.441 32.9836 132.218 33.2175C131.995 33.4514 131.871 33.7622 131.871 34.0854C131.871 34.4086 131.995 34.7194 132.218 34.9533C132.441 35.1872 132.746 35.3263 133.068 35.3417H130.556C130.223 35.3417 129.903 35.4742 129.667 35.71C129.431 35.9459 129.299 36.2658 129.299 36.5994C129.299 36.9329 129.431 37.2528 129.667 37.4887C129.903 37.7246 130.223 37.8571 130.556 37.8571H145.097C145.431 37.8571 145.75 37.7246 145.986 37.4887C146.222 37.2528 146.355 36.9329 146.355 36.5994C146.355 36.2658 146.222 35.9459 145.986 35.71C145.75 35.4742 145.431 35.3417 145.097 35.3417H147.609C147.779 35.3498 147.949 35.3233 148.108 35.2638C148.268 35.2044 148.414 35.1131 148.537 34.9957C148.66 34.8782 148.758 34.737 148.825 34.5805C148.892 34.424 148.927 34.2556 148.927 34.0854C148.927 33.9152 148.892 33.7467 148.825 33.5903C148.758 33.4338 148.66 33.2926 148.537 33.1751C148.414 33.0577 148.268 32.9664 148.108 32.907C147.949 32.8475 147.779 32.821 147.609 32.8291Z" fill="#6C63FF"/>
<path opacity="0.1" d="M204.085 77.0799H202.291C202.613 77.0645 202.918 76.9254 203.141 76.6915C203.364 76.4576 203.488 76.1468 203.488 75.8236C203.488 75.5004 203.364 75.1897 203.141 74.9557C202.918 74.7218 202.613 74.5828 202.291 74.5673H187.736C187.566 74.5592 187.396 74.5857 187.236 74.6452C187.077 74.7047 186.931 74.7959 186.808 74.9133C186.685 75.0308 186.587 75.172 186.52 75.3285C186.453 75.485 186.418 75.6534 186.418 75.8236C186.418 75.9938 186.453 76.1623 186.52 76.3187C186.587 76.4752 186.685 76.6164 186.808 76.7339C186.931 76.8513 187.077 76.9426 187.236 77.002C187.396 77.0615 187.566 77.088 187.736 77.0799H189.53C189.208 77.0953 188.903 77.2344 188.68 77.4683C188.457 77.7022 188.333 78.013 188.333 78.3362C188.333 78.6593 188.457 78.9701 188.68 79.204C188.903 79.4379 189.208 79.577 189.53 79.5924H187.018C186.685 79.5924 186.365 79.7249 186.129 79.9608C185.893 80.1967 185.761 80.5166 185.761 80.8501C185.761 81.1837 185.893 81.5036 186.129 81.7395C186.365 81.9753 186.685 82.1078 187.018 82.1078H201.556C201.89 82.1078 202.209 81.9753 202.445 81.7395C202.681 81.5036 202.814 81.1837 202.814 80.8501C202.814 80.5166 202.681 80.1967 202.445 79.9608C202.209 79.7249 201.89 79.5924 201.556 79.5924H204.085C204.255 79.6005 204.425 79.5741 204.585 79.5146C204.744 79.4551 204.89 79.3639 205.013 79.2464C205.136 79.129 205.234 78.9877 205.301 78.8313C205.368 78.6748 205.403 78.5064 205.403 78.3362C205.403 78.1659 205.368 77.9975 205.301 77.841C205.234 77.6846 205.136 77.5433 205.013 77.4259C204.89 77.3084 204.744 77.2172 204.585 77.1577C204.425 77.0983 204.255 77.0718 204.085 77.0799Z" fill="#6C63FF"/>
<path opacity="0.1" d="M120.399 68.8934H118.604C118.774 68.9015 118.944 68.875 119.104 68.8155C119.263 68.7561 119.409 68.6648 119.532 68.5474C119.655 68.4299 119.753 68.2887 119.82 68.1322C119.887 67.9757 119.922 67.8073 119.922 67.6371C119.922 67.4669 119.887 67.2984 119.82 67.142C119.753 66.9855 119.655 66.8443 119.532 66.7268C119.409 66.6094 119.263 66.5181 119.104 66.4587C118.944 66.3992 118.774 66.3727 118.604 66.3808H104.061C103.891 66.3727 103.721 66.3992 103.561 66.4587C103.402 66.5181 103.256 66.6094 103.133 66.7268C103.01 66.8443 102.912 66.9855 102.845 67.142C102.778 67.2984 102.743 67.4669 102.743 67.6371C102.743 67.8073 102.778 67.9757 102.845 68.1322C102.912 68.2887 103.01 68.4299 103.133 68.5474C103.256 68.6648 103.402 68.7561 103.561 68.8155C103.721 68.875 103.891 68.9015 104.061 68.8934H105.855C105.685 68.8853 105.516 68.9117 105.356 68.9712C105.197 69.0307 105.051 69.1219 104.928 69.2394C104.805 69.3568 104.707 69.4981 104.64 69.6545C104.573 69.811 104.538 69.9794 104.538 70.1496C104.538 70.3199 104.573 70.4883 104.64 70.6448C104.707 70.8012 104.805 70.9425 104.928 71.0599C105.051 71.1774 105.197 71.2686 105.356 71.3281C105.516 71.3875 105.685 71.414 105.855 71.4059H103.34C103.007 71.4059 102.687 71.5384 102.451 71.7743C102.215 72.0101 102.083 72.3301 102.083 72.6636C102.083 72.9972 102.215 73.3171 102.451 73.5529C102.687 73.7888 103.007 73.9213 103.34 73.9213H117.881C118.215 73.9213 118.535 73.7888 118.77 73.5529C119.006 73.3171 119.139 72.9972 119.139 72.6636C119.139 72.3301 119.006 72.0101 118.77 71.7743C118.535 71.5384 118.215 71.4059 117.881 71.4059H120.393C120.563 71.414 120.733 71.3875 120.893 71.3281C121.052 71.2686 121.198 71.1774 121.321 71.0599C121.444 70.9425 121.542 70.8012 121.609 70.6448C121.676 70.4883 121.711 70.3199 121.711 70.1496C121.711 69.9794 121.676 69.811 121.609 69.6545C121.542 69.4981 121.444 69.3568 121.321 69.2394C121.198 69.1219 121.052 69.0307 120.893 68.9712C120.733 68.9117 120.563 68.8853 120.393 68.8934H120.399Z" fill="#6C63FF"/>
</g>
<defs>
<linearGradient id="paint0_linear" x1="-207269" y1="18733.2" x2="-223974" y2="18733.2" gradientUnits="userSpaceOnUse">
<stop stop-color="#808080" stop-opacity="0.25"/>
<stop offset="0.54" stop-color="#808080" stop-opacity="0.12"/>
<stop offset="1" stop-color="#808080" stop-opacity="0.1"/>
</linearGradient>
<clipPath id="clip0">
<rect width="295" height="238" fill="white"/>
</clipPath>
</defs>
</svg>
